Powersim Data Summary • powerAnalyser
…
plotting params

alpha <- 0.3
size <- 2.7

data

powersim represents a tidy processed versions of summary.csv, an initial sample of simulation results. The following figures highlighted the limitations of the data driving the current app prototype.

load(here::here("data", "powersim.rda"))
powersim
#> # A tibble: 243 x 5
#> # Groups:   condition, n [27]
#>        n condition     effect_size  power   bin
#>    <dbl> <chr>               <dbl>  <dbl> <int>
#>  1   10. accuracy         0.0305   0.0300     9
#>  2   10. drift            0.       0.0600     1
#>  3   10. reaction_time    0.0378   0.0300     1
#>  4  300. accuracy         0.00480  0.0200     9
#>  5  300. drift            0.       0.0500     1
#>  6  300. reaction_time   -0.000772 0.         1
#>  7   10. accuracy        -0.376    0.110      8
#>  8   10. drift            2.00     0.230      2
#>  9   10. reaction_time    0.394    0.110      2
#> 10  300. accuracy        -0.385    0.990      8
#> # ... with 233 more rows
…
However, each condition & n combination has the same number of effect_size bins, n = 9.

powersim %>% group_by(condition, n) %>% count()
#> # A tibble: 27 x 3
#> # Groups:   condition, n [27]
#>    condition     n    nn
#>    <chr>     <dbl> <int>
#>  1 accuracy    10.     9
#>  2 accuracy    20.     9
#>  3 accuracy    30.     9
#>  4 accuracy    40.     9
#>  5 accuracy    50.     9
#>  6 accuracy    75.     9
#>  7 accuracy   100.     9
#>  8 accuracy   150.     9
#>  9 accuracy   300.     9
#> 10 drift       10.     9
#> # ... with 17 more rows
…
